<svg style="position:absolute;left:-100%;">
	<defs>
		<symbol id="enright-logo" viewbox="0 0 87.85 97.812">
		<rect x="1.178" fill="#C41230" width="72.304" height="72.31"/>
<polygon fill="#C41230" points="84.129,8.764 87.148,8.764 87.145,0 78.38,0 78.38,0.001 78.355,0.001 78.355,72.31 78.38,72.31 
	78.38,72.392 87.145,72.395 87.145,63.626 84.129,63.627 84.129,41.795 87.145,41.795 87.145,33.026 84.129,33.026 "/>
<g>
	<path fill="#232222" d="M8.05,97.117c0,0.294-0.072,0.344-0.337,0.344H0.289C0.097,97.461,0,97.364,0,97.167V80.91
		c0-0.196,0.097-0.296,0.289-0.296h7.496c0.265,0,0.313,0.074,0.313,0.146c0,0.075-0.048,0.223-0.072,0.321l-0.337,1.033
		c-0.073,0.222-0.146,0.222-0.362,0.222H1.976v5.459h4.725c0.264,0,0.313,0.049,0.313,0.319v1.082c0,0.271-0.049,0.319-0.313,0.319
		H1.976v6.224h5.785c0.192,0,0.289,0.098,0.289,0.27V97.117z"/>
</g>
<g>
	<path fill="#232222" d="M22.535,97.167c0,0.172-0.096,0.295-0.289,0.295h-1.35c-0.193,0-0.289-0.075-0.385-0.247l-5.544-12.149
		c-0.289-0.639-0.53-1.45-0.651-2.14l-0.048,0.05c0.193,0.936,0.242,1.648,0.242,2.189v12.002c0,0.196-0.097,0.295-0.289,0.295
		h-1.254c-0.193,0-0.289-0.099-0.289-0.295V80.911c0-0.173,0.096-0.298,0.289-0.298h1.639c0.193,0,0.289,0.075,0.361,0.223
		l5.327,11.461c0.289,0.614,0.361,1.154,0.579,1.893l0.047-0.048c-0.072-0.518-0.217-1.059-0.217-1.501V80.911
		c0-0.197,0.097-0.298,0.289-0.298h1.254c0.193,0,0.289,0.101,0.289,0.298V97.167z"/>
	<path fill="#232222" d="M38.152,97.067c0.049,0.099,0.097,0.197,0.097,0.271c0,0.072-0.097,0.146-0.265,0.172l-1.519,0.295
		c-0.168,0.024-0.289-0.025-0.361-0.197l-3.976-7.82h-1.736v7.378c0,0.197-0.096,0.296-0.289,0.296h-1.398
		c-0.193,0-0.289-0.099-0.289-0.296V80.91c0-0.196,0.096-0.296,0.289-0.296h3.736c1.855,0,4.893,0.124,4.893,4.477
		c0,2.705-1.856,4.082-3.182,4.525L38.152,97.067z M31.959,88.189c1.783,0,3.398-0.419,3.398-3.05c0-2.73-1.736-2.803-3.109-2.803
		h-1.856v5.853H31.959z"/>
</g>
<g>
	<path fill="#232222" d="M48.564,97.167c0,0.196-0.096,0.295-0.289,0.295h-6.363c-0.193,0-0.289-0.099-0.289-0.295v-1.011
		c0-0.195,0.096-0.294,0.289-0.294h2.194V82.213h-2.194c-0.193,0-0.289-0.099-0.289-0.295v-1.007c0-0.197,0.096-0.298,0.289-0.298
		h6.363c0.193,0,0.289,0.101,0.289,0.298v1.007c0,0.196-0.096,0.295-0.289,0.295h-2.193v13.649h2.193
		c0.193,0,0.289,0.099,0.289,0.294V97.167z"/>
	<path fill="#232222" d="M60.833,95.862c0,0.64,0,0.836-0.337,1.032c-0.893,0.517-2.437,0.911-3.905,0.911
		c-4.267,0-5.785-3.836-5.785-8.928c0-4.674,1.591-8.608,5.833-8.608c2.219,0,4.001,1.157,4.001,1.501
		c0,0.098-0.048,0.172-0.121,0.319l-0.362,0.688c-0.07,0.172-0.191,0.344-0.312,0.344c-0.241,0-1.229-1.204-3.157-1.204
		c-2.652,0-3.713,2.559-3.713,6.714c0,4.55,1.037,7.525,3.664,7.525c1.109,0,1.76-0.245,2.219-0.467v-5.165h-1.93
		c-0.193,0-0.289-0.099-0.289-0.296v-1.008c0-0.197,0.096-0.294,0.289-0.294h3.616c0.19,0,0.289,0.097,0.289,0.294V95.862z"/>
	<path fill="#232222" d="M66.762,89.566v7.6c0,0.197-0.098,0.295-0.291,0.295h-1.396c-0.193,0-0.289-0.098-0.289-0.295V80.91
		c0-0.197,0.096-0.296,0.289-0.296h1.396c0.193,0,0.291,0.099,0.291,0.296v6.936h6.193V80.91c0-0.197,0.096-0.296,0.289-0.296h1.398
		c0.193,0,0.289,0.099,0.289,0.296v16.256c0,0.197-0.096,0.295-0.289,0.295h-1.398c-0.193,0-0.289-0.098-0.289-0.295v-7.6H66.762z"
		/>
	<path fill="#232222" d="M83.632,82.337v14.83c0,0.196-0.096,0.294-0.289,0.294h-1.397c-0.194,0-0.289-0.098-0.289-0.294v-14.83
		h-3.592c-0.193,0-0.289-0.1-0.289-0.296v-1.106c0-0.173,0.072-0.321,0.338-0.321h9.447c0.17,0,0.289,0.051,0.289,0.197
		c0,0.101-0.072,0.197-0.097,0.319l-0.337,0.936c-0.073,0.197-0.216,0.271-0.385,0.271H83.632z"/>
</g>
		</symbol><!--logo-->
		<symbol id="icon-menu" viewbox="0 0 24 20">
			<path d="M24,4H0V0h24V4z M24,8H0v4h24V8z M24,16H0v4h24V16z"/>
		</symbol>
		<symbol id="popup-exit" viewbox="0 0 272.5 195.2">
			<g>
				<rect x="193.2" y="73.2" width="79.3" height="48.8"/>
			</g>
			<g>
				<rect x="193.2" y="146.4" width="79.3" height="48.8"/>
			</g>
			<g>
				<rect x="193.2" width="79.3" height="48.8"/>
			</g>
			<g>
				<rect x="96.6" width="79.3" height="48.8"/>
			</g>
			<g>
				<rect x="96.6" y="73.2" width="79.3" height="48.8"/>
			</g>
			<g>
				<rect x="96.6" y="146.4" width="79.3" height="48.8"/>
			</g>
			<g>
				<rect width="79.3" height="48.8"/>
			</g>
			<g>
				<rect y="73.2" width="79.3" height="48.8"/>
			</g>
			<g>
				<rect y="146.4" width="79.3" height="48.8"/>
			</g>

		</symbol>
		<symbol id="show-more" viewbox="0 0 64 64">
			<polygon points="32.2,30.6 52,17.1 51.2,15 32.1,28.1 12.9,15 12.1,17.1 31.9,30.6 "/>
			<polygon points="32.2,50.6 52,37.1 51.2,35 32.1,48.1 12.9,35 12.1,37.1 31.9,50.6 "/>
		</symbol>
		<symbol id="icon-map" viewbox="0 0 22.7 34.1">
			<path d="M22.7,11.4c0,1.6-0.2,2.9-0.7,4l-8.1,17.2c-0.2,0.5-0.6,0.9-1.1,1.2c-0.5,0.3-1,0.4-1.5,0.4c-0.5,0-1-0.1-1.5-0.4
		c-0.5-0.3-0.8-0.7-1-1.2L0.7,15.3c-0.5-1-0.7-2.4-0.7-4c0-3.1,1.1-5.8,3.3-8C5.5,1.1,8.2,0,11.4,0c3.1,0,5.8,1.1,8,3.3
		C21.6,5.5,22.7,8.2,22.7,11.4z M15.4,15.4c1.1-1.1,1.7-2.4,1.7-4s-0.6-2.9-1.7-4c-1.1-1.1-2.4-1.7-4-1.7c-1.6,0-2.9,0.6-4,1.7
		c-1.1,1.1-1.7,2.4-1.7,4s0.6,2.9,1.7,4c1.1,1.1,2.4,1.7,4,1.7C12.9,17,14.3,16.5,15.4,15.4z"/>
		</symbol>
		<symbol id="icon-brochure" viewbox="0 0 31.8 29.4">
			<path d="M31.3,6.7c0.5,0.7,0.6,1.5,0.3,2.5l-5.3,17.3c-0.2,0.8-0.7,1.5-1.5,2.1c-0.7,0.6-1.5,0.8-2.3,0.8H5c-1,0-1.9-0.3-2.8-1
		c-0.9-0.7-1.5-1.5-1.9-2.5c-0.3-0.9-0.3-1.7,0-2.4c0-0.1,0-0.2,0.1-0.5c0-0.3,0.1-0.5,0.1-0.7c0-0.1,0-0.2-0.1-0.4
		c-0.1-0.2-0.1-0.3-0.1-0.4c0-0.1,0.1-0.3,0.2-0.4c0.1-0.1,0.2-0.3,0.3-0.5c0.1-0.2,0.2-0.3,0.3-0.4c0.3-0.5,0.6-1.1,0.9-1.7
		c0.3-0.7,0.5-1.3,0.6-1.7c0-0.1,0-0.3,0-0.6c0-0.3,0-0.4,0-0.5c0-0.1,0.1-0.3,0.3-0.5c0.2-0.2,0.3-0.4,0.3-0.4
		c0.3-0.5,0.5-1,0.8-1.8C4.2,12,4.3,11.5,4.4,11c0-0.1,0-0.3,0-0.6c0-0.3,0-0.5,0-0.5c0.1-0.2,0.2-0.4,0.4-0.6
		C5,9.1,5.1,8.9,5.2,8.9C5.4,8.5,5.7,8,6,7.3c0.3-0.7,0.5-1.4,0.5-1.8c0-0.1,0-0.3-0.1-0.5c-0.1-0.2-0.1-0.4,0-0.5
		c0-0.1,0.1-0.2,0.2-0.3c0.1-0.1,0.2-0.3,0.3-0.4c0.1-0.2,0.2-0.3,0.3-0.4c0.1-0.2,0.2-0.3,0.3-0.6C7.7,2.4,7.8,2.2,7.9,2
		C7.9,1.8,8,1.5,8.2,1.3s0.2-0.5,0.4-0.6C8.7,0.5,8.8,0.4,9,0.2S9.5,0,9.7,0c0.2,0,0.6,0,0.9,0.1l0,0.1c0.5-0.1,0.8-0.2,1-0.2h14.5
		c0.9,0,1.7,0.4,2.2,1.1c0.5,0.7,0.6,1.5,0.3,2.5l-5.2,17.3c-0.5,1.5-0.9,2.5-1.4,2.9c-0.5,0.4-1.3,0.7-2.5,0.7H3
		c-0.3,0-0.6,0.1-0.7,0.3c-0.1,0.2-0.1,0.5,0,0.8c0.3,0.9,1.2,1.3,2.8,1.3h17.6c0.4,0,0.7-0.1,1.1-0.3c0.3-0.2,0.6-0.5,0.7-0.8
		L30.1,7c0.1-0.3,0.1-0.6,0.1-1.1C30.7,6.1,31.1,6.3,31.3,6.7z M9.4,11.6c-0.1,0.2,0,0.3,0,0.4c0.1,0.1,0.2,0.2,0.4,0.2h11.6
		c0.2,0,0.3-0.1,0.5-0.2s0.3-0.3,0.3-0.4l0.4-1.2c0.1-0.2,0-0.3,0-0.4c-0.1-0.1-0.2-0.2-0.4-0.2H10.6c-0.2,0-0.3,0.1-0.5,0.2
		c-0.2,0.1-0.3,0.3-0.3,0.4L9.4,11.6z M11,6.7C11,6.9,11,7,11,7.2c0.1,0.1,0.2,0.2,0.4,0.2H23c0.2,0,0.3-0.1,0.5-0.2
		c0.2-0.1,0.3-0.3,0.3-0.4l0.4-1.2c0.1-0.2,0-0.3,0-0.4C24.1,5,24,4.9,23.8,4.9H12.2c-0.2,0-0.3,0.1-0.5,0.2
		c-0.2,0.1-0.3,0.3-0.3,0.4L11,6.7z"/>
		</symbol>
		<symbol id="icon-web" viewbox="0 0 33.9 52.6">
			<path d="M33.3,30.6c0.6,0.6,0.7,1.3,0.4,2c-0.3,0.8-0.9,1.2-1.7,1.2H20.7l5.9,14c0.2,0.5,0.2,1,0,1.4c-0.2,0.5-0.5,0.8-1,1
		l-5.2,2.2c-0.5,0.2-1,0.2-1.4,0c-0.5-0.2-0.8-0.5-1-1l-5.6-13.3l-9.2,9.2c-0.4,0.4-0.8,0.6-1.3,0.6c-0.2,0-0.5,0-0.7-0.1
		C0.4,47.4,0,46.9,0,46V1.9c0-0.8,0.4-1.4,1.2-1.7C1.4,0,1.6,0,1.9,0c0.5,0,1,0.2,1.3,0.6L33.3,30.6z"/>
		</symbol>
		<symbol id="icon-share" viewbox="0 0 10.5 12">
			<path d="M8.2,7.5c0.6,0,1.2,0.2,1.6,0.7s0.7,1,0.7,1.6s-0.2,1.2-0.7,1.6S8.9,12,8.2,12s-1.2-0.2-1.6-0.7S6,10.4,6,9.8
		c0-0.2,0-0.3,0-0.5L3.7,7.8C3.2,8.1,2.8,8.2,2.2,8.2C1.6,8.2,1.1,8,0.7,7.6S0,6.6,0,6s0.2-1.2,0.7-1.6s1-0.7,1.6-0.7
		c0.5,0,1,0.2,1.4,0.5L6,2.7c0-0.2,0-0.3,0-0.5c0-0.6,0.2-1.2,0.7-1.6S7.6,0,8.2,0s1.2,0.2,1.6,0.7s0.7,1,0.7,1.6s-0.2,1.2-0.7,1.6
		s-1,0.7-1.6,0.7c-0.5,0-1-0.2-1.4-0.5L4.5,5.5c0.1,0.3,0.1,0.7,0,1L6.8,8C7.2,7.7,7.7,7.5,8.2,7.5z"/>
		</symbol>

	</defs>
</svg>